{
  "defaultSeverity": "error",
  "extends": [
    "tslint:recommended"
  ],
  "jsRules": {},
  "rules": {
    "arrow-parens": [true, "ban-single-arg-parens"],
    "max-classes-per-file": false,
    "max-line-length": [true, 150],
    "member-access": [true, "no-public"],
    "object-literal-sort-keys": false,
    "ordered-imports": false,
    "quotemark": [true, "single"],
    "trailing-comma": false,
    "no-unused-variable": true
  },
  "rulesDirectory": []
}
