{
  "getDashboardStats": {
    "result": [
      {
        "month": "04/2017",
        "nbCallDoneRequests": 11,
        "nbCallDoneAttendances": 1,
        "requestGradeAverage": 5.5,
        "attendanceGradeAverage": 4.5,
        "nbGradedRequests": 11,
        "nbGradedAttendances": 1
      },
      {
        "month": "05/2017",
        "nbCallDoneRequests": 10,
        "nbCallDoneAttendances": 2,
        "requestGradeAverage": 5,
        "attendanceGradeAverage": 5,
        "nbGradedRequests": 10,
        "nbGradedAttendances": 2
      },
      {
        "month": "06/2017",
        "nbCallDoneRequests": 9,
        "nbCallDoneAttendances": 3,
        "requestGradeAverage": 4.5,
        "attendanceGradeAverage": 5.5,
        "nbGradedRequests": 9,
        "nbGradedAttendances": 3
      },
      {
        "month": "07/2017",
        "nbCallDoneRequests": 8,
        "nbCallDoneAttendances": 4,
        "requestGradeAverage": 4,
        "attendanceGradeAverage": 6,
        "nbGradedRequests": 8,
        "nbGradedAttendances": 4
      },
      {
        "month": "08/2017",
        "nbCallDoneRequests": 7,
        "nbCallDoneAttendances": 5,
        "requestGradeAverage": 3.5,
        "attendanceGradeAverage": 6.5,
        "nbGradedRequests": 7,
        "nbGradedAttendances": 5
      },
      {
        "month": "09/2017",
        "nbCallDoneRequests": 6,
        "nbCallDoneAttendances": 6,
        "requestGradeAverage": 3,
        "attendanceGradeAverage": 7,
        "nbGradedRequests": 6,
        "nbGradedAttendances": 6
      },
      {
        "month": "10/2017",
        "nbCallDoneRequests": 5,
        "nbCallDoneAttendances": 7,
        "requestGradeAverage": 2.5,
        "attendanceGradeAverage": 7.5,
        "nbGradedRequests": 5,
        "nbGradedAttendances": 7
      },
      {
        "month": "11/2017",
        "nbCallDoneRequests": 4,
        "nbCallDoneAttendances": 8,
        "requestGradeAverage": 2,
        "attendanceGradeAverage": 8,
        "nbGradedRequests": 4,
        "nbGradedAttendances": 8
      },
      {
        "month": "12/2017",
        "nbCallDoneRequests": 3,
        "nbCallDoneAttendances": 9,
        "requestGradeAverage": 1.5,
        "attendanceGradeAverage": 8.5,
        "nbGradedRequests": 3,
        "nbGradedAttendances": 9
      },
      {
        "month": "01/2018",
        "nbCallDoneRequests": 2,
        "nbCallDoneAttendances": 10,
        "requestGradeAverage": 1,
        "attendanceGradeAverage": 9,
        "nbGradedRequests": 2,
        "nbGradedAttendances": 10
      },
      {
        "month": "02/2018",
        "nbCallDoneRequests": 1,
        "nbCallDoneAttendances": 11,
        "requestGradeAverage": 0.5,
        "attendanceGradeAverage": 9.5,
        "nbGradedRequests": 1,
        "nbGradedAttendances": 11
      },
      {
        "month": "03/2018",
        "nbCallDoneRequests": 0,
        "nbCallDoneAttendances": 12,
        "requestGradeAverage": null,
        "attendanceGradeAverage": 10,
        "nbGradedRequests": 0,
        "nbGradedAttendances": 12
      },
      {
        "month": "04/2018",
        "nbCallDoneRequests": 11,
        "nbCallDoneAttendances": 1,
        "requestGradeAverage": 5.5,
        "attendanceGradeAverage": 4.5,
        "nbGradedRequests": 11,
        "nbGradedAttendances": 1
      },
      {
        "month": "05/2018",
        "nbCallDoneRequests": 10,
        "nbCallDoneAttendances": 2,
        "requestGradeAverage": 5,
        "attendanceGradeAverage": 5,
        "nbGradedRequests": 10,
        "nbGradedAttendances": 2
      },
      {
        "month": "06/2018",
        "nbCallDoneRequests": 9,
        "nbCallDoneAttendances": 3,
        "requestGradeAverage": 4.5,
        "attendanceGradeAverage": 5.5,
        "nbGradedRequests": 9,
        "nbGradedAttendances": 3
      },
      {
        "month": "07/2018",
        "nbCallDoneRequests": 8,
        "nbCallDoneAttendances": 4,
        "requestGradeAverage": 4,
        "attendanceGradeAverage": 6,
        "nbGradedRequests": 8,
        "nbGradedAttendances": 4
      },
      {
        "month": "08/2018",
        "nbCallDoneRequests": 7,
        "nbCallDoneAttendances": 5,
        "requestGradeAverage": 3.5,
        "attendanceGradeAverage": 6.5,
        "nbGradedRequests": 7,
        "nbGradedAttendances": 5
      },
      {
        "month": "09/2018",
        "nbCallDoneRequests": 6,
        "nbCallDoneAttendances": 6,
        "requestGradeAverage": 3,
        "attendanceGradeAverage": 7,
        "nbGradedRequests": 6,
        "nbGradedAttendances": 6
      },
      {
        "month": "10/2018",
        "nbCallDoneRequests": 5,
        "nbCallDoneAttendances": 7,
        "requestGradeAverage": 2.5,
        "attendanceGradeAverage": 7.5,
        "nbGradedRequests": 5,
        "nbGradedAttendances": 7
      },
      {
        "month": "11/2018",
        "nbCallDoneRequests": 4,
        "nbCallDoneAttendances": 8,
        "requestGradeAverage": 2,
        "attendanceGradeAverage": 8,
        "nbGradedRequests": 4,
        "nbGradedAttendances": 8
      },
      {
        "month": "12/2018",
        "nbCallDoneRequests": 3,
        "nbCallDoneAttendances": 9,
        "requestGradeAverage": 1.5,
        "attendanceGradeAverage": 8.5,
        "nbGradedRequests": 3,
        "nbGradedAttendances": 9
      },
      {
        "month": "01/2019",
        "nbCallDoneRequests": 2,
        "nbCallDoneAttendances": 10,
        "requestGradeAverage": 1,
        "attendanceGradeAverage": 9,
        "nbGradedRequests": 2,
        "nbGradedAttendances": 10
      },
      {
        "month": "02/2019",
        "nbCallDoneRequests": 1,
        "nbCallDoneAttendances": 11,
        "requestGradeAverage": 0.5,
        "attendanceGradeAverage": 9.5,
        "nbGradedRequests": 1,
        "nbGradedAttendances": 11
      },
      {
        "month": "03/2019",
        "nbCallDoneRequests": 0,
        "nbCallDoneAttendances": 12,
        "requestGradeAverage": null,
        "attendanceGradeAverage": 10,
        "nbGradedRequests": 0,
        "nbGradedAttendances": 12
      },
      {
        "month": "04/2019",
        "nbCallDoneRequests": 11,
        "nbCallDoneAttendances": 1,
        "requestGradeAverage": 9.9,
        "attendanceGradeAverage": 9.5,
        "nbGradedRequests": 11,
        "nbGradedAttendances": 1
      }
    ]
  },
  "getDashboardSeats": {
    "result": {
      "nbTakenSeats": 7,
      "nbPaidSeats": 8,
      "nbOnboardedSeats": 4
    }
  },
  "getDashboardCommonChallenges": {
    "result": [
      {
        "challengeTitle": "Transitioning from IC to management",
        "nbCallDoneRequests": 23,
        "nbCallDoneAttendances": 12
      },
      {
        "challengeTitle": "Balancing time and prioritizing your work",
        "nbCallDoneRequests": 13,
        "nbCallDoneAttendances": 4
      },
      {
        "challengeTitle": "Bringing change in non-tech processes and getting the team to buy in ultricies quam",
        "nbCallDoneRequests": 2,
        "nbCallDoneAttendances": 3
      }
    ]
  },
  "getDashboardQualitativeFeedback": {
    "result": [
      {
        "qualitativeFeedback": "Great job helping me see things from other people's perspective.",
        "callScheduledAt": 1
      },
      {
        "qualitativeFeedback": "The tactics Tido has given me are very helpful. As we discussed, I would work with HR earlier on in term of review/comp discussions. I will alsotry out the weekly updates on the metrics I am looking at with the team to help forest a good practice within the team. Thanks again for your good advices!",
        "callScheduledAt": 2
      },
      {
        "qualitativeFeedback": "The experiences with rolling out one-on-ones, OKRs, etc. were helpful. Very applicable to what we are aiming to do, internally..",
        "callScheduledAt": 3
      },
      {
        "qualitativeFeedback": "Gave examples that would work for me...",
        "callScheduledAt": 4
      },
      {
        "qualitativeFeedback": "She brought everything back to our core values and that was my favorite part",
        "callScheduledAt": 5
      },
      {
        "qualitativeFeedback": "I enjoyed the conversation with Tido. He actually foresees the issue that I may not know. His advice saves me spending time on the wrong things",
        "callScheduledAt": 6
      }
    ]
  },
  "getDashboardMentees": {
    "result": [
      {
        "mentee": {
          "id": 1,
          "fullName": "Jose Varela",
          "picture": {
            "originalUrl": "https://s3-us-west-1.amazonaws.com/plato-api-images-production/DbManagerUser/1997/picture/original/615hQM8Ult.png",
            "thumbnailUrl": "https://s3-us-west-1.amazonaws.com/plato-api-images-production/DbManagerUser/1997/picture/small/615hQM8Ult.png"
          }
        },
        "statistics": {
          "nbCallDoneRequests": 0,
          "nbGradedRequests": 0,
          "nbCallDoneAttendances": 0,
          "nbGradedAttendances": 0,
          "requestGradeAverage": null,
          "attendanceGradeAverage": null
        }
      },
      {
        "mentee": {
          "id": 2,
          "fullName": "Chris Garoutte",
          "picture": {
            "originalUrl": null,
            "thumbnailUrl": null
          }
        },
        "statistics": {
          "nbCallDoneRequests": 3,
          "nbGradedRequests": 2,
          "nbCallDoneAttendances": 3,
          "nbGradedAttendances": 1,
          "requestGradeAverage": 10,
          "attendanceGradeAverage": 5
        }
      },
      {
        "mentee": {
          "id": 3,
          "fullName": "Shaun Mullen",
          "picture": {
            "originalUrl": "https://s3-us-west-1.amazonaws.com/plato-api-images-production/DbManagerUser/1992/picture/original/M7MSkmkXHw.png",
            "thumbnailUrl": "https://s3-us-west-1.amazonaws.com/plato-api-images-production/DbManagerUser/1992/picture/small/M7MSkmkXHw.png"
          }
        },
        "statistics": {
          "nbCallDoneRequests": 2,
          "nbGradedRequests": 1,
          "nbCallDoneAttendances": 4,
          "nbGradedAttendances": 3,
          "requestGradeAverage": 10,
          "attendanceGradeAverage": 9
        }
      },
      {
        "mentee": {
          "id": 4,
          "fullName": "Denis Shershnev",
          "picture": {
            "originalUrl": "https://s3-us-west-1.amazonaws.com/plato-api-images-production/DbManagerUser/1990/picture/original/wkRmnFKcSR.png",
            "thumbnailUrl": "https://s3-us-west-1.amazonaws.com/plato-api-images-production/DbManagerUser/1990/picture/small/wkRmnFKcSR.png"
          }
        },
        "statistics": {
          "nbCallDoneRequests": 25,
          "nbGradedRequests": 24,
          "nbCallDoneAttendances": 16,
          "nbGradedAttendances": 10,
          "requestGradeAverage": 9,
          "attendanceGradeAverage": 9
        }
      },
      {
        "mentee": {
          "id": 5,
          "fullName": "Andy Summers",
          "picture": {
            "originalUrl": "https://s3-us-west-1.amazonaws.com/plato-api-images-production/DbManagerUser/1988/picture/original/Vm2xOCFDnG.png",
            "thumbnailUrl": "https://s3-us-west-1.amazonaws.com/plato-api-images-production/DbManagerUser/1988/picture/small/Vm2xOCFDnG.png"
          }
        },
        "statistics": {
          "nbCallDoneRequests": 2,
          "nbGradedRequests": 1,
          "nbCallDoneAttendances": 2,
          "nbGradedAttendances": 1,
          "requestGradeAverage": 9.5,
          "attendanceGradeAverage": 9
        }
      }
    ]
  }
}
