<svg xmlns="http://www.w3.org/2000/svg" width="103" height="91" viewBox="0 0 103 91">
    <g fill="none" fill-rule="evenodd">
        <path stroke="#00A8CF" stroke-linecap="round" stroke-linejoin="round" stroke-width="1.569" d="M1 89.634h100.976"/>
        <path fill="#FFF" d="M59.737 26.408h1.703v1.704l-1.703.835"/>
        <path fill="#CCEFFF" d="M54.062 19.024l1.198 4.154 4.477.815v-1.862z"/>
        <path stroke="#00A8CF" stroke-linejoin="round" stroke-width="1.495" d="M48.386 22.131l4.957.631.719-3.737 1.198 4.153 4.477.967"/>
        <path stroke="#00A8CF" stroke-linejoin="round" stroke-width="1.495" d="M59.737 31.52l-5.675 2.273-5.676-2.273v-9.389l5.676-3.107 5.675 3.107z"/>
        <path stroke="#00A8CF" stroke-linecap="round" stroke-linejoin="round" stroke-width="1.495" d="M51.224 27.828v-.852M55.764 27.828v-.852M52.075 30.384l1.419.568 1.419-.568M59.737 26.408h1.703v1.704l-1.703.835"/>
        <path fill="#9BDCEC" d="M48.386 58.217l-.748 20.674 5.288-11.586 5.676 18.176 2.27-27.264z"/>
        <path stroke="#00A8CF" stroke-linecap="round" stroke-linejoin="round" stroke-width="1.495" d="M57.62 36.308l-3.559 7.14-3.558-7.14"/>
        <path fill="#D1F2FA" d="M49.444 54.606h9.234v-12.09h-9.234z"/>
        <path stroke="#00A8CF" stroke-linecap="round" stroke-linejoin="round" stroke-width="1.495" d="M49.444 54.606h9.234v-12.09h-9.234z"/>
        <path fill="#D1F2FA" d="M60.872 42.88v3.663l-7.378-.822 2.27 3.124 8.513 2.272V38.905"/>
        <path stroke="#00A8CF" stroke-linecap="round" stroke-linejoin="round" stroke-width="1.495" d="M60.872 42.88v3.663l-7.378-.822 2.27 3.124 8.513 2.272V38.905M60.872 42.88v2.84"/>
        <path stroke="#00A8CF" stroke-linecap="round" stroke-linejoin="round" stroke-width="1.495" d="M45.676 45.337l-.128 12.88-.209 26.98 7.587-17.892 5.676 17.892 2.27-26.98v-8.009"/>
        <path stroke="#00A8CF" stroke-linecap="round" stroke-linejoin="round" stroke-width="1.495" d="M45.676 45.337l-1.165 3.508.828 6.767-2.878-1.606-1.949-7.463 5.731-8.556M64.277 38.905l-10.215-3.976-7.818 3.058"/>
        <g transform="translate(21.7 28.506)">
            <circle cx="5.488" cy="5.488" r="5.488" fill="#1BBFE5" fill-opacity=".114"/>
            <path fill="#00A8CF" d="M7.672 3.362a.549.549 0 1 1 .776.776L5.156 7.431a.549.549 0 0 1-.776 0L2.996 6.047a.549.549 0 0 1 .776-.776l.996.996 2.904-2.905z"/>
        </g>
        <g transform="translate(27.554 11.677)">
            <circle cx="5.488" cy="5.488" r="5.488" fill="#1BBFE5" fill-opacity=".114"/>
            <path fill="#00A8CF" d="M7.764 3.82a.549.549 0 0 1 .776.775L5.247 7.888a.549.549 0 0 1-.776 0L3.088 6.504a.549.549 0 0 1 .776-.776l.995.996 2.905-2.905z"/>
        </g>
        <g transform="translate(48.773 .701)">
            <circle cx="5.488" cy="5.488" r="5.488" fill="#1BBFE5" fill-opacity=".114"/>
            <path fill="#00A8CF" d="M7.764 3.088a.549.549 0 0 1 .776.776L5.247 7.156a.549.549 0 0 1-.776 0L3.088 5.773a.549.549 0 0 1 .776-.776l.995.995 2.905-2.904z"/>
        </g>
        <g transform="translate(71.456 10.945)">
            <circle cx="5.488" cy="5.488" r="5.488" fill="#E5F8FC"/>
            <path fill="#00A8CF" d="M7.764 3.82a.549.549 0 0 1 .776.775L5.247 7.888a.549.549 0 0 1-.776 0L3.088 6.504a.549.549 0 0 1 .776-.776l.995.996 2.905-2.905z"/>
        </g>
        <g fill="#ABB4BF" transform="translate(75.847 27.775)">
            <circle cx="5.488" cy="5.488" r="5.488" fill-opacity=".112"/>
            <path d="M7.764 3.82a.549.549 0 0 1 .776.775L5.247 7.888a.549.549 0 0 1-.776 0L3.088 6.504a.549.549 0 0 1 .776-.776l.995.996 2.905-2.905z"/>
        </g>
    </g>
</svg>
