<svg xmlns="http://www.w3.org/2000/svg" width="181" height="138" viewBox="0 0 181 138">
    <g fill="none" fill-rule="evenodd">
        <path fill="#E6F7FF" d="M98.462 93.581h60.769V119H98.462z"/>
        <path stroke="#7ED3E7" stroke-width="2.5" d="M90 119V88.19h70V119zM145.865 63.25h9.038v24.459h-9.038zM94.23 88.19l12.693-13.48v13.48H94.231zM109.615 88.19l12.693-13.48v13.48h-12.693zM125.77 88.19c8.46-8.987 12.692-13.48 12.692-13.48v13.48h-12.693z"/>
        <g opacity=".5">
            <path fill="#CCEFFF" d="M168.076 15.696a.686.686 0 0 1-1.102.45l-2.354-1.831-2.355-1.83a.688.688 0 0 1 .162-1.18l2.761-1.127 2.76-1.126a.686.686 0 0 1 .94.73l-.406 2.957-.406 2.957z"/>
            <path stroke="#00A8CF" stroke-width=".98" d="M168.076 15.696a.686.686 0 0 1-1.102.45l-2.354-1.831-2.355-1.83a.688.688 0 0 1 .162-1.18l2.761-1.127 2.76-1.126a.686.686 0 0 1 .94.73l-.406 2.957-.406 2.957z"/>
            <path fill="#CCEFFF" d="M164.107 51.98a.686.686 0 0 1-1.098.458l-2.37-1.811-2.368-1.812a.687.687 0 0 1 .151-1.18l2.752-1.15 2.75-1.148a.686.686 0 0 1 .945.721l-.38 2.961-.382 2.96z"/>
            <path stroke="#00A8CF" stroke-width=".98" d="M165.107 51.98a.686.686 0 0 1-1.098.458l-2.37-1.811-2.368-1.812a.687.687 0 0 1 .151-1.18l2.752-1.15 2.75-1.148a.686.686 0 0 1 .945.721l-.38 2.961-.382 2.96z"/>
            <path fill="#CCEFFF" d="M156.703 32.792a.325.325 0 0 1-.538-.164l-.321-1.374-.32-1.377a.324.324 0 0 1 .41-.384l1.35.409 1.35.41c.239.072.31.377.128.549l-1.03.965-1.029.966z"/>
            <path stroke="#00A8CF" stroke-width=".98" d="M156.703 32.792a.325.325 0 0 1-.538-.164l-.321-1.374-.32-1.377a.324.324 0 0 1 .41-.384l1.35.409 1.35.41c.239.072.31.377.128.549l-1.03.965-1.029.966z"/>
            <path stroke="#00A8CF" stroke-linecap="round" stroke-width=".98" d="M144 37.283l.465 3.463 3.386.851.465 3.466 3.39.855.47 3.467M158.345 21.306L154.577 21l-2.015 3.201-3.768-.306-2.02 3.205-3.774-.304"/>
        </g>
        <g>
            <path fill="#FFF" d="M94.225 17.622h3.785v3.781l-3.785 1.853M96.749 88.21l5.047 47.9-22.712-40.337-22.712 40.336L62.68 88.21M94.225 28.966l-12.618 5.042-12.618-5.042V8.13l12.618-6.895L94.225 8.13z"/>
            <path fill="#CCEFFF" d="M79.084 95.773l22.712 40.336-5.047-47.899h-27.76l-4.382 33.274zM68.99 15.1v-1.89l12.617-6.933 12.618 6.933v1.89z"/>
            <path stroke="#00A8CF" stroke-linejoin="round" stroke-width="2.521" d="M94.225 28.966l-12.618 5.042-12.618-5.042V8.13l12.618-6.895L94.225 8.13z"/>
            <path stroke="#00A8CF" stroke-linecap="round" stroke-linejoin="round" stroke-width="2.521" d="M75.298 20.773v-1.89M85.393 20.773v-1.89M89.52 39.59l-7.913 15.847-7.912-15.847M94.225 15.1H57.633M83.5 26.445l-3.155 1.26-3.154-1.26M94.225 17.622h3.785v3.781l-3.785 1.853"/>
            <path fill="#FFF" stroke="#00A8CF" stroke-linecap="round" stroke-linejoin="round" stroke-width="2.521" d="M96.749 54.176V63L77.822 76.866h7.57l18.927-7.563v-23.95l-22.712-8.824-22.712 8.786-1.262 7.601-1.261 15.756L62.68 88.21"/>
            <path stroke="#00A8CF" stroke-linecap="round" stroke-linejoin="round" stroke-width="2.521" d="M96.749 54.176v6.303M96.749 88.21l5.047 47.9-22.712-40.337-22.712 40.336L62.68 88.21z"/>
            <path stroke="#00A8CF" stroke-width="2.52" d="M96.118 88.21L100 71.824M62.092 95l-6.5-6.79.78-20.71"/>
        </g>
        <path stroke="#00A8CF" stroke-linecap="round" stroke-linejoin="round" stroke-width="2.521" d="M11 136.235h158"/>
        <path stroke="#00A8CF" stroke-linecap="round" stroke-linejoin="round" stroke-width="1.875" d="M177.188 136.222H180M1 136.222H3.81"/>
    </g>
</svg>
